{
  "project_info": {
    "project_number": "1098181302565",
    "firebase_url": "https://komercia-2c50b.firebaseio.com",
    "project_id": "komercia-2c50b",
    "storage_bucket": "komercia-2c50b.appspot.com"
  },
  "client": [
    {
      "client_info": {
        "mobilesdk_app_id": "1:1098181302565:android:be234fbccb434a7e",
        "android_client_info": {
          "package_name": "com.komercia.kontrol"
        }
      },
      "oauth_client": [
        {
          "client_id": "1098181302565-cjl00jv4sqqbjl8kuj87j8t63d4rkrd0.apps.googleusercontent.com",
          "client_type": 3
        }
      ],
      "api_key": [
        {
          "current_key": "AIzaSyBedHQEyDD6QYR7MlPGeAH276knet4qvtw"
        }
      ],
      "services": {
        "appinvite_service": {
          "other_platform_oauth_client": [
            {
              "client_id": "1098181302565-cjl00jv4sqqbjl8kuj87j8t63d4rkrd0.apps.googleusercontent.com",
              "client_type": 3
            }
          ]
        }
      }
    },
    {
      "client_info": {
        "mobilesdk_app_id": "1:1098181302565:android:d53e9085024d53dc2962cc",
        "android_client_info": {
          "package_name": "com.kontrol"
        }
      },
      "oauth_client": [
        {
          "client_id": "1098181302565-cjl00jv4sqqbjl8kuj87j8t63d4rkrd0.apps.googleusercontent.com",
          "client_type": 3
        }
      ],
      "api_key": [
        {
          "current_key": "AIzaSyBedHQEyDD6QYR7MlPGeAH276knet4qvtw"
        }
      ],
      "services": {
        "appinvite_service": {
          "other_platform_oauth_client": [
            {
              "client_id": "1098181302565-cjl00jv4sqqbjl8kuj87j8t63d4rkrd0.apps.googleusercontent.com",
              "client_type": 3
            }
          ]
        }
      }
    }
  ],
  "configuration_version": "1"
}